@startdot UML diagrams

digraph UMLdiagrams {

node [color=Red, shape=box]
UML -> Structure;
UML -> Behavior;

    node [color=DarkGreen, shape=box]
    Structure -> {Package Class Deployment Object Component CompositeStructure}
    
    node [color=DarkMagenta, shape=box]
    Behavior -> {Activity UseCase State Sequence Interaction}

        node [color=Blue, shape=box]
        Interaction -> {Timing Communication InteractionOverview}
}

@enddot
