@startuml

title controllers package

package "controller" #DDDD00 {
class Controller <<abstract interface>>
Controller <|-- Pcontroller
Controller <|-- PIcontroller
} 

Controller : +<<virtual>> +operator()(err: double): double = 0 
Controller : +{static} getCount(): int 
Controller : - Ts_: double
Controller : #{static} count_: int

Pcontroller : +operator()(err: double): double <<virtual>>
Pcontroller : -P_: double

PIcontroller : +operator()(err: double): double <<virtual>>
PIcontroller : +reset()
PIcontroller : -P_: double
PIcontroller : -I_: double
PIcontroller : -integrator_: double

@enduml